{
	"did":1234123,
	"fwv":"22.39.464",
	"sig":-53,
	"bat":23,
	"tms":1570644000,
	"per":3600,
	"ctr":10,
	"dat": {
		"prs":[40543.0, 92467.8, 65056.7, 103052.9, 72286.5, 72139.4, 54418.9, 35293.4, 109496.1, 90759.2],
		"tmp":[-31.5, -34.8, -29.6, 34.8, 42.9, 53.6, 56.3, -32.2, 27.5, 41.8],
		"hum":[23, 70, 39, 38, 0, 62, 53, 1, 20, 85],
		"dpr":[1, 1, 1, 1, 1, 1, 1, 1, 1, 1],
		"rms":[32.180, 73.498, 11.717, 89.698, 55.828, 34.352, 40.285, 48.594, 83.930, 42.668],
		"rss":[44.914, 3.709, 33.931, 13.586, 60.692, 89.181, 28.268, 24.704, 76.961, 77.087],
		"pkk":[71.628, 15.880, 14.128, 48.439, 10.438, 71.295, 40.037, 26.888, 15.994, 64.369],
		"voc":[351, 457, 375, 344, 126, 16, 85, 305, 273, 403],
		"run":[0, 1, 1, 1, 1, 1, 1, 1, 1, 0]
	}
}
