{
 "senderId": "email/id",
 "tms": 1571190960,
 "recipients": [
  "list",
  "of",
  "recipients'",
  "ids"
 ],
 "types": [
  "{predetermined}",
  "{list}",
  "{of}",
  "{WO}",
  "{types}"
 ],
 "subject": "max50Char",
 "notes": "max160Char",
 "building": "buildingId",
 "vent": "airVentId",
 "floor": "floorIndex(INTEGER)",
 "urgency": "int1Through3",
 "active": "bool"
}
