[
 {
  "objectId": "37bb2665-9808-4d56-bb56-0ed2300f8d9e",
  "userId": "d4767f69-4e8b-4b44-9364-039e36c68309",
  "timestamp": 1543104000,
  "values": {
   "lifeExpectancy": 151,
   "deltaPressure95Percentile": 43
  },
  "dataAnalysisPK": "37bb2665-9808-4d56-bb56-0ed2300f8d9e.DAILY_AIR_FILTER",
  "id": "cbacb169-c57f-4727-86d1-fb1ad4e73982",
  "type": "DAILY_AIR_FILTER"
 },
 {
  "objectId": "37bb2665-9808-4d56-bb56-0ed2300f8d9e",
  "userId": "d4767f69-4e8b-4b44-9364-039e36c68309",
  "timestamp": 1543017600,
  "values": {
   "lifeExpectancy": 152,
   "deltaPressure95Percentile": 46
  },
  "dataAnalysisPK": "37bb2665-9808-4d56-bb56-0ed2300f8d9e.DAILY_AIR_FILTER",
  "id": "1fffa640-bc64-4605-bcb4-ec979e348b5c",
  "type": "DAILY_AIR_FILTER"
 },
 {
  "objectId": "37bb2665-9808-4d56-bb56-0ed2300f8d9e",
  "userId": "d4767f69-4e8b-4b44-9364-039e36c68309",
  "timestamp": 1542931200,
  "values": {
   "lifeExpectancy": 153,
   "deltaPressure95Percentile": 50
  },
  "dataAnalysisPK": "37bb2665-9808-4d56-bb56-0ed2300f8d9e.DAILY_AIR_FILTER",
  "id": "ca003cd9-626f-4928-9421-eac48a1220d8",
  "type": "DAILY_AIR_FILTER"
 },
 {
  "objectId": "37bb2665-9808-4d56-bb56-0ed2300f8d9e",
  "userId": "d4767f69-4e8b-4b44-9364-039e36c68309",
  "timestamp": 1542844800,
  "values": {
   "lifeExpectancy": 154,
   "deltaPressure95Percentile": 45
  },
  "dataAnalysisPK": "37bb2665-9808-4d56-bb56-0ed2300f8d9e.DAILY_AIR_FILTER",
  "id": "a8e5eb52-5df1-4e6c-8550-b31f6b214795",
  "type": "DAILY_AIR_FILTER"
 },
 {
  "objectId": "37bb2665-9808-4d56-bb56-0ed2300f8d9e",
  "userId": "d4767f69-4e8b-4b44-9364-039e36c68309",
  "timestamp": 1542758400,
  "values": {
   "lifeExpectancy": 155,
   "deltaPressure95Percentile": 50
  },
  "dataAnalysisPK": "37bb2665-9808-4d56-bb56-0ed2300f8d9e.DAILY_AIR_FILTER",
  "id": "7190301f-b304-48d9-9ebc-2b0613fb1a31",
  "type": "DAILY_AIR_FILTER"
 },
 {
  "objectId": "37bb2665-9808-4d56-bb56-0ed2300f8d9e",
  "userId": "d4767f69-4e8b-4b44-9364-039e36c68309",
  "timestamp": 1542672000,
  "values": {
   "lifeExpectancy": 156,
   "deltaPressure95Percentile": 45
  },
  "dataAnalysisPK": "37bb2665-9808-4d56-bb56-0ed2300f8d9e.DAILY_AIR_FILTER",
  "id": "92e8101f-0165-4355-80cf-313b2b004a87",
  "type": "DAILY_AIR_FILTER"
 },
 {
  "objectId": "37bb2665-9808-4d56-bb56-0ed2300f8d9e",
  "userId": "d4767f69-4e8b-4b44-9364-039e36c68309",
  "timestamp": 1542585600,
  "values": {
   "lifeExpectancy": 157,
   "deltaPressure95Percentile": 47
  },
  "dataAnalysisPK": "37bb2665-9808-4d56-bb56-0ed2300f8d9e.DAILY_AIR_FILTER",
  "id": "e762c58a-97f9-4569-b2e9-a55b812fef73",
  "type": "DAILY_AIR_FILTER"
 },
 {
  "objectId": "37bb2665-9808-4d56-bb56-0ed2300f8d9e",
  "userId": "d4767f69-4e8b-4b44-9364-039e36c68309",
  "timestamp": 1542499200,
  "values": {
   "lifeExpectancy": 158,
   "deltaPressure95Percentile": 50
  },
  "dataAnalysisPK": "37bb2665-9808-4d56-bb56-0ed2300f8d9e.DAILY_AIR_FILTER",
  "id": "9f9f069b-34ee-49e5-8e3b-e7ace4753f5d",
  "type": "DAILY_AIR_FILTER"
 },
 {
  "objectId": "37bb2665-9808-4d56-bb56-0ed2300f8d9e",
  "userId": "d4767f69-4e8b-4b44-9364-039e36c68309",
  "timestamp": 1542412800,
  "values": {
   "lifeExpectancy": 159,
   "deltaPressure95Percentile": 54
  },
  "dataAnalysisPK": "37bb2665-9808-4d56-bb56-0ed2300f8d9e.DAILY_AIR_FILTER",
  "id": "b59d9f60-d9fc-4522-ac51-53c1a2c80e51",
  "type": "DAILY_AIR_FILTER"
 },
 {
  "objectId": "37bb2665-9808-4d56-bb56-0ed2300f8d9e",
  "userId": "d4767f69-4e8b-4b44-9364-039e36c68309",
  "timestamp": 1542326400,
  "values": {
   "lifeExpectancy": 160,
   "deltaPressure95Percentile": 48
  },
  "dataAnalysisPK": "37bb2665-9808-4d56-bb56-0ed2300f8d9e.DAILY_AIR_FILTER",
  "id": "e10faa05-e002-46a4-bf33-c6340589fd28",
  "type": "DAILY_AIR_FILTER"
 }
]