[
 {
  "objectId": "41779be0-640d-4c3a-8b76-ce14ae44d136",
  "userId": "b038fe92-cbae-47a3-ad05-1cb14b8329b7",
  "timestamp": 1561161600,
  "values": {
   "remainingPercents": 56.18307623597333,
   "lifeExpectancy": 39,
   "deltaPressure95Percentile": 36,
   "maximumDeltaPressure95Percentile": 36.54994782010896
  },
  "dataAnalysisPK": "41779be0-640d-4c3a-8b76-ce14ae44d136.DAILY_AIR_FILTER",
  "id": "8ca29296-d03d-4e08-bf10-beb12cf7b519",
  "type": "DAILY_AIR_FILTER"
 },
 {
  "objectId": "41779be0-640d-4c3a-8b76-ce14ae44d136",
  "userId": "b038fe92-cbae-47a3-ad05-1cb14b8329b7",
  "timestamp": 1561075200,
  "values": {
   "remainingPercents": 56.18307623597333,
   "lifeExpectancy": 39,
   "deltaPressure95Percentile": 30.1,
   "maximumDeltaPressure95Percentile": 36.54994782010896
  },
  "dataAnalysisPK": "41779be0-640d-4c3a-8b76-ce14ae44d136.DAILY_AIR_FILTER",
  "id": "41a5b520-6dd6-414e-88e7-8b700ab579c4",
  "type": "DAILY_AIR_FILTER"
 },
 {
  "objectId": "41779be0-640d-4c3a-8b76-ce14ae44d136",
  "userId": "b038fe92-cbae-47a3-ad05-1cb14b8329b7",
  "timestamp": 1560988800,
  "values": {
   "remainingPercents": 56.18307623597333,
   "lifeExpectancy": 39,
   "deltaPressure95Percentile": 37.7,
   "maximumDeltaPressure95Percentile": 36.54994782010896
  },
  "dataAnalysisPK": "41779be0-640d-4c3a-8b76-ce14ae44d136.DAILY_AIR_FILTER",
  "id": "252c171a-7d4f-45d4-972a-9e9149830406",
  "type": "DAILY_AIR_FILTER"
 },
 {
  "objectId": "41779be0-640d-4c3a-8b76-ce14ae44d136",
  "userId": "b038fe92-cbae-47a3-ad05-1cb14b8329b7",
  "timestamp": 1560902400,
  "values": {
   "remainingPercents": 56.55610185117931,
   "lifeExpectancy": 39,
   "deltaPressure95Percentile": 34,
   "maximumDeltaPressure95Percentile": 36.48056505568065
  },
  "dataAnalysisPK": "41779be0-640d-4c3a-8b76-ce14ae44d136.DAILY_AIR_FILTER",
  "id": "3cff5854-ae89-479e-81f6-60fe1be85d80",
  "type": "DAILY_AIR_FILTER"
 },
 {
  "objectId": "41779be0-640d-4c3a-8b76-ce14ae44d136",
  "userId": "b038fe92-cbae-47a3-ad05-1cb14b8329b7",
  "timestamp": 1560816000,
  "values": {
   "remainingPercents": 56.55610185117931,
   "lifeExpectancy": 40,
   "deltaPressure95Percentile": 37,
   "maximumDeltaPressure95Percentile": 36.48056505568065
  },
  "dataAnalysisPK": "41779be0-640d-4c3a-8b76-ce14ae44d136.DAILY_AIR_FILTER",
  "id": "3a5831f4-331a-4b81-8604-ff2463067c8a",
  "type": "DAILY_AIR_FILTER"
 },
 {
  "objectId": "41779be0-640d-4c3a-8b76-ce14ae44d136",
  "userId": "b038fe92-cbae-47a3-ad05-1cb14b8329b7",
  "timestamp": 1560729600,
  "values": {
   "remainingPercents": 56.55610185117931,
   "lifeExpectancy": 40,
   "deltaPressure95Percentile": 38,
   "maximumDeltaPressure95Percentile": 36.48056505568065
  },
  "dataAnalysisPK": "41779be0-640d-4c3a-8b76-ce14ae44d136.DAILY_AIR_FILTER",
  "id": "47e50245-2514-4cdd-95e6-32e31808e645",
  "type": "DAILY_AIR_FILTER"
 },
 {
  "objectId": "41779be0-640d-4c3a-8b76-ce14ae44d136",
  "userId": "b038fe92-cbae-47a3-ad05-1cb14b8329b7",
  "timestamp": 1560643200,
  "values": {
   "remainingPercents": 57.68496937441798,
   "lifeExpectancy": 40,
   "deltaPressure95Percentile": 37.7,
   "maximumDeltaPressure95Percentile": 36.27059569635826
  },
  "dataAnalysisPK": "41779be0-640d-4c3a-8b76-ce14ae44d136.DAILY_AIR_FILTER",
  "id": "556c449e-6b4b-45a1-894f-34c2f3e831b6",
  "type": "DAILY_AIR_FILTER"
 },
 {
  "objectId": "41779be0-640d-4c3a-8b76-ce14ae44d136",
  "userId": "b038fe92-cbae-47a3-ad05-1cb14b8329b7",
  "timestamp": 1560556800,
  "values": {
   "remainingPercents": 57.96412936192875,
   "lifeExpectancy": 40,
   "deltaPressure95Percentile": 35,
   "maximumDeltaPressure95Percentile": 36.218671938681254
  },
  "dataAnalysisPK": "41779be0-640d-4c3a-8b76-ce14ae44d136.DAILY_AIR_FILTER",
  "id": "e0df7917-b656-4351-b035-53ef86a59ab1",
  "type": "DAILY_AIR_FILTER"
 },
 {
  "objectId": "41779be0-640d-4c3a-8b76-ce14ae44d136",
  "userId": "b038fe92-cbae-47a3-ad05-1cb14b8329b7",
  "timestamp": 1560470400,
  "values": {
   "remainingPercents": 57.96412936192875,
   "lifeExpectancy": 41,
   "deltaPressure95Percentile": 34,
   "maximumDeltaPressure95Percentile": 36.218671938681254
  },
  "dataAnalysisPK": "41779be0-640d-4c3a-8b76-ce14ae44d136.DAILY_AIR_FILTER",
  "id": "8d494a93-1362-4e23-bc65-9aad426f03c7",
  "type": "DAILY_AIR_FILTER"
 },
 {
  "objectId": "41779be0-640d-4c3a-8b76-ce14ae44d136",
  "userId": "b038fe92-cbae-47a3-ad05-1cb14b8329b7",
  "timestamp": 1560384000,
  "values": {
   "remainingPercents": 57.96412936192875,
   "lifeExpectancy": 41,
   "deltaPressure95Percentile": 30,
   "maximumDeltaPressure95Percentile": 36.218671938681254
  },
  "dataAnalysisPK": "41779be0-640d-4c3a-8b76-ce14ae44d136.DAILY_AIR_FILTER",
  "id": "bab0e205-eab3-4cdc-b1a4-15ad35615dc8",
  "type": "DAILY_AIR_FILTER"
 }
]