[
 {
  "objectId": "c9332032-eef6-4b8c-b196-778062c4a06a",
  "userId": "5048c357-f1a4-4b72-9c91-6ba5fead9ecb",
  "timestamp": 1567814400,
  "values": {
   "remainingPercents": 100,
   "lifeExpectancy": 95,
   "deltaPressure95Percentile": 27.4,
   "maximumDeltaPressure95Percentile": 51.4
  },
  "dataAnalysisPK": "c9332032-eef6-4b8c-b196-778062c4a06a.DAILY_AIR_FILTER",
  "id": "e8f0a27c-165d-456d-88a0-1b20d2b6967d",
  "type": "DAILY_AIR_FILTER"
 },
 {
  "objectId": "c9332032-eef6-4b8c-b196-778062c4a06a",
  "userId": "5048c357-f1a4-4b72-9c91-6ba5fead9ecb",
  "timestamp": 1567728000,
  "values": {
   "remainingPercents": 100,
   "lifeExpectancy": 93,
   "deltaPressure95Percentile": 52,
   "maximumDeltaPressure95Percentile": 51.4
  },
  "dataAnalysisPK": "c9332032-eef6-4b8c-b196-778062c4a06a.DAILY_AIR_FILTER",
  "id": "a249a623-fca8-4429-a279-e32be7a0b5c1",
  "type": "DAILY_AIR_FILTER"
 }
]