[
 {
  "objectId": "8803aa17-e60e-4172-937a-d2c0d8be920e",
  "userId": "00d4f2c7-87c6-43fd-b422-4415318e39a9",
  "timestamp": 1564704000,
  "values": {
   "remainingPercents": 43.16262412737124,
   "lifeExpectancy": 103,
   "deltaPressure95Percentile": 98,
   "maximumDeltaPressure95Percentile": 98.97175191230895
  },
  "dataAnalysisPK": "8803aa17-e60e-4172-937a-d2c0d8be920e.DAILY_AIR_FILTER",
  "id": "45c2b5aa-64d1-4878-8788-b71260a2fbb1",
  "type": "DAILY_AIR_FILTER"
 },
 {
  "objectId": "8803aa17-e60e-4172-937a-d2c0d8be920e",
  "userId": "00d4f2c7-87c6-43fd-b422-4415318e39a9",
  "timestamp": 1564617600,
  "values": {
   "remainingPercents": 43.16262412737124,
   "lifeExpectancy": 103,
   "deltaPressure95Percentile": 101,
   "maximumDeltaPressure95Percentile": 98.97175191230895
  },
  "dataAnalysisPK": "8803aa17-e60e-4172-937a-d2c0d8be920e.DAILY_AIR_FILTER",
  "id": "c7a04259-847a-4c9c-a21c-d42a077ee9a3",
  "type": "DAILY_AIR_FILTER"
 },
 {
  "objectId": "8803aa17-e60e-4172-937a-d2c0d8be920e",
  "userId": "00d4f2c7-87c6-43fd-b422-4415318e39a9",
  "timestamp": 1564531200,
  "values": {
   "remainingPercents": 43.4865364141595,
   "lifeExpectancy": 103,
   "deltaPressure95Percentile": 101,
   "maximumDeltaPressure95Percentile": 98.91150422696633
  },
  "dataAnalysisPK": "8803aa17-e60e-4172-937a-d2c0d8be920e.DAILY_AIR_FILTER",
  "id": "f4fec293-44d8-4305-b819-07ed454454b1",
  "type": "DAILY_AIR_FILTER"
 },
 {
  "objectId": "8803aa17-e60e-4172-937a-d2c0d8be920e",
  "userId": "00d4f2c7-87c6-43fd-b422-4415318e39a9",
  "timestamp": 1564444800,
  "values": {
   "remainingPercents": 43.769959665099336,
   "lifeExpectancy": 103,
   "deltaPressure95Percentile": 101,
   "maximumDeltaPressure95Percentile": 98.85878750229152
  },
  "dataAnalysisPK": "8803aa17-e60e-4172-937a-d2c0d8be920e.DAILY_AIR_FILTER",
  "id": "b6db9da8-0d98-4e39-9294-e96b5da07562",
  "type": "DAILY_AIR_FILTER"
 },
 {
  "objectId": "8803aa17-e60e-4172-937a-d2c0d8be920e",
  "userId": "00d4f2c7-87c6-43fd-b422-4415318e39a9",
  "timestamp": 1564358400,
  "values": {
   "remainingPercents": 45.36204103117705,
   "lifeExpectancy": 103,
   "deltaPressure95Percentile": 99,
   "maximumDeltaPressure95Percentile": 98.56266036820107
  },
  "dataAnalysisPK": "8803aa17-e60e-4172-937a-d2c0d8be920e.DAILY_AIR_FILTER",
  "id": "c42ca7fb-3d68-4c3c-938f-f0b89eb13f32",
  "type": "DAILY_AIR_FILTER"
 },
 {
  "objectId": "8803aa17-e60e-4172-937a-d2c0d8be920e",
  "userId": "00d4f2c7-87c6-43fd-b422-4415318e39a9",
  "timestamp": 1564272000,
  "values": {
   "remainingPercents": 45.75392242167787,
   "lifeExpectancy": 103,
   "deltaPressure95Percentile": 95,
   "maximumDeltaPressure95Percentile": 98.48977042956791
  },
  "dataAnalysisPK": "8803aa17-e60e-4172-937a-d2c0d8be920e.DAILY_AIR_FILTER",
  "id": "c2431b59-67c4-4a4b-b37b-3b4a181597f0",
  "type": "DAILY_AIR_FILTER"
 },
 {
  "objectId": "8803aa17-e60e-4172-937a-d2c0d8be920e",
  "userId": "00d4f2c7-87c6-43fd-b422-4415318e39a9",
  "timestamp": 1564185600,
  "values": {
   "remainingPercents": 45.75392242167787,
   "lifeExpectancy": 102,
   "deltaPressure95Percentile": 97,
   "maximumDeltaPressure95Percentile": 98.48977042956791
  },
  "dataAnalysisPK": "8803aa17-e60e-4172-937a-d2c0d8be920e.DAILY_AIR_FILTER",
  "id": "a5b0d4a7-43d3-4a1a-82d8-dc1e3a88b072",
  "type": "DAILY_AIR_FILTER"
 },
 {
  "objectId": "8803aa17-e60e-4172-937a-d2c0d8be920e",
  "userId": "00d4f2c7-87c6-43fd-b422-4415318e39a9",
  "timestamp": 1564099200,
  "values": {
   "remainingPercents": 45.75392242167787,
   "lifeExpectancy": 102,
   "deltaPressure95Percentile": 97,
   "maximumDeltaPressure95Percentile": 98.48977042956791
  },
  "dataAnalysisPK": "8803aa17-e60e-4172-937a-d2c0d8be920e.DAILY_AIR_FILTER",
  "id": "aadf3fd0-92ae-436a-b27b-d02a5c471fdb",
  "type": "DAILY_AIR_FILTER"
 },
 {
  "objectId": "8803aa17-e60e-4172-937a-d2c0d8be920e",
  "userId": "00d4f2c7-87c6-43fd-b422-4415318e39a9",
  "timestamp": 1564012800,
  "values": {
   "remainingPercents": 45.75392242167787,
   "lifeExpectancy": 102,
   "deltaPressure95Percentile": 98,
   "maximumDeltaPressure95Percentile": 98.48977042956791
  },
  "dataAnalysisPK": "8803aa17-e60e-4172-937a-d2c0d8be920e.DAILY_AIR_FILTER",
  "id": "29799a89-0d6a-41e2-9bb5-a760363e8612",
  "type": "DAILY_AIR_FILTER"
 },
 {
  "objectId": "8803aa17-e60e-4172-937a-d2c0d8be920e",
  "userId": "00d4f2c7-87c6-43fd-b422-4415318e39a9",
  "timestamp": 1563926400,
  "values": {
   "remainingPercents": 45.75392242167787,
   "lifeExpectancy": 102,
   "deltaPressure95Percentile": 93.6,
   "maximumDeltaPressure95Percentile": 98.48977042956791
  },
  "dataAnalysisPK": "8803aa17-e60e-4172-937a-d2c0d8be920e.DAILY_AIR_FILTER",
  "id": "e77fea63-841c-4563-a118-2f140cdde151",
  "type": "DAILY_AIR_FILTER"
 }
]