[
 {
  "objectId": "9528597e-6ffe-4af8-b4b1-009cbe6b5f43",
  "userId": "d40a1294-c81e-4d96-9d47-f5c363bba652",
  "timestamp": 1553817600,
  "values": {
   "remainingPercents": 36.39474337654709,
   "lifeExpectancy": 25,
   "deltaPressure95Percentile": 31.6,
   "maximumDeltaPressure95Percentile": 35.13057773196224
  },
  "dataAnalysisPK": "9528597e-6ffe-4af8-b4b1-009cbe6b5f43.DAILY_AIR_FILTER",
  "id": "a6946efc-8e34-48ce-a6e2-14b6a8c4310e",
  "type": "DAILY_AIR_FILTER"
 },
 {
  "objectId": "9528597e-6ffe-4af8-b4b1-009cbe6b5f43",
  "userId": "d40a1294-c81e-4d96-9d47-f5c363bba652",
  "timestamp": 1553731200,
  "values": {
   "remainingPercents": 36.39474337654709,
   "lifeExpectancy": 25,
   "deltaPressure95Percentile": 31.3,
   "maximumDeltaPressure95Percentile": 35.13057773196224
  },
  "dataAnalysisPK": "9528597e-6ffe-4af8-b4b1-009cbe6b5f43.DAILY_AIR_FILTER",
  "id": "e6865c85-43a2-412f-b5d2-1e0d72291686",
  "type": "DAILY_AIR_FILTER"
 },
 {
  "objectId": "9528597e-6ffe-4af8-b4b1-009cbe6b5f43",
  "userId": "d40a1294-c81e-4d96-9d47-f5c363bba652",
  "timestamp": 1553644800,
  "values": {
   "remainingPercents": 36.39474337654709,
   "lifeExpectancy": 25,
   "deltaPressure95Percentile": 40.4,
   "maximumDeltaPressure95Percentile": 35.13057773196224
  },
  "dataAnalysisPK": "9528597e-6ffe-4af8-b4b1-009cbe6b5f43.DAILY_AIR_FILTER",
  "id": "9875fe27-9d19-4224-9345-1ba185766c90",
  "type": "DAILY_AIR_FILTER"
 },
 {
  "objectId": "9528597e-6ffe-4af8-b4b1-009cbe6b5f43",
  "userId": "d40a1294-c81e-4d96-9d47-f5c363bba652",
  "timestamp": 1553299200,
  "values": {
   "remainingPercents": 39.00611050404326,
   "lifeExpectancy": 28,
   "deltaPressure95Percentile": 37,
   "maximumDeltaPressure95Percentile": 34.64486344624795
  },
  "dataAnalysisPK": "9528597e-6ffe-4af8-b4b1-009cbe6b5f43.DAILY_AIR_FILTER",
  "id": "8223b3de-a254-45a9-be2a-020db6fba225",
  "type": "DAILY_AIR_FILTER"
 },
 {
  "objectId": "9528597e-6ffe-4af8-b4b1-009cbe6b5f43",
  "userId": "d40a1294-c81e-4d96-9d47-f5c363bba652",
  "timestamp": 1553212800,
  "values": {
   "remainingPercents": 39.680520031198526,
   "lifeExpectancy": 28,
   "deltaPressure95Percentile": 31.9,
   "maximumDeltaPressure95Percentile": 34.519423274197074
  },
  "dataAnalysisPK": "9528597e-6ffe-4af8-b4b1-009cbe6b5f43.DAILY_AIR_FILTER",
  "id": "d07f342b-06d9-4b92-baec-c7947f6e3ffe",
  "type": "DAILY_AIR_FILTER"
 },
 {
  "objectId": "9528597e-6ffe-4af8-b4b1-009cbe6b5f43",
  "userId": "d40a1294-c81e-4d96-9d47-f5c363bba652",
  "timestamp": 1553126400,
  "values": {
   "remainingPercents": 39.680520031198526,
   "lifeExpectancy": 29,
   "deltaPressure95Percentile": 31.2,
   "maximumDeltaPressure95Percentile": 34.519423274197074
  },
  "dataAnalysisPK": "9528597e-6ffe-4af8-b4b1-009cbe6b5f43.DAILY_AIR_FILTER",
  "id": "dac2c8d0-dce4-4bfa-a4aa-1a92b3fdef6e",
  "type": "DAILY_AIR_FILTER"
 },
 {
  "objectId": "9528597e-6ffe-4af8-b4b1-009cbe6b5f43",
  "userId": "d40a1294-c81e-4d96-9d47-f5c363bba652",
  "timestamp": 1553040000,
  "values": {
   "remainingPercents": 39.680520031198526,
   "lifeExpectancy": 29,
   "deltaPressure95Percentile": 38.8,
   "maximumDeltaPressure95Percentile": 34.519423274197074
  },
  "dataAnalysisPK": "9528597e-6ffe-4af8-b4b1-009cbe6b5f43.DAILY_AIR_FILTER",
  "id": "8a476a88-187b-4a4c-beb4-912bc0144ab8",
  "type": "DAILY_AIR_FILTER"
 },
 {
  "objectId": "9528597e-6ffe-4af8-b4b1-009cbe6b5f43",
  "userId": "d40a1294-c81e-4d96-9d47-f5c363bba652",
  "timestamp": 1552953600,
  "values": {
   "remainingPercents": 42.55237580440061,
   "lifeExpectancy": 29,
   "deltaPressure95Percentile": 33.5,
   "maximumDeltaPressure95Percentile": 33.985258100381486
  },
  "dataAnalysisPK": "9528597e-6ffe-4af8-b4b1-009cbe6b5f43.DAILY_AIR_FILTER",
  "id": "1feaf3dd-0ac0-422c-bb62-e4332c6f08b8",
  "type": "DAILY_AIR_FILTER"
 },
 {
  "objectId": "9528597e-6ffe-4af8-b4b1-009cbe6b5f43",
  "userId": "d40a1294-c81e-4d96-9d47-f5c363bba652",
  "timestamp": 1552867200,
  "values": {
   "remainingPercents": 42.55237580440061,
   "lifeExpectancy": 30,
   "deltaPressure95Percentile": 33,
   "maximumDeltaPressure95Percentile": 33.985258100381486
  },
  "dataAnalysisPK": "9528597e-6ffe-4af8-b4b1-009cbe6b5f43.DAILY_AIR_FILTER",
  "id": "d286409f-5104-4f95-94e4-da52205e8293",
  "type": "DAILY_AIR_FILTER"
 },
 {
  "objectId": "9528597e-6ffe-4af8-b4b1-009cbe6b5f43",
  "userId": "d40a1294-c81e-4d96-9d47-f5c363bba652",
  "timestamp": 1552780800,
  "values": {
   "remainingPercents": 42.55237580440061,
   "lifeExpectancy": 30,
   "deltaPressure95Percentile": 37.7,
   "maximumDeltaPressure95Percentile": 33.985258100381486
  },
  "dataAnalysisPK": "9528597e-6ffe-4af8-b4b1-009cbe6b5f43.DAILY_AIR_FILTER",
  "id": "e36aa542-5264-44b0-8fad-d26fa1004ff5",
  "type": "DAILY_AIR_FILTER"
 }
]