{
 "Items": [
  {
   "ctr": 2,
   "sig": -57,
   "bat": 100,
   "fwv": "0.0.018",
   "dat": {
    "ttp": [
     25.43,
     25.42
    ],
    "htp": [
     25.67,
     25.52
    ],
    "tpr": [
     100314,
     100312
    ],
    "dpr": [
     3,
     1
    ],
    "iaq": [
     99,
     99
    ],
    "run": [
     0,
     0
    ],
    "voc": [
     2635,
     2635
    ],
    "hpr": [
     100304,
     100300
    ],
    "hhm": [
     36,
     36
    ]
   },
   "tms": 1546978350,
   "airFilterId": "b6bb28e2-0d76-4622-9565-81c97b53de84",
   "per": 10,
   "did": 1201547013998639
  },
  {
   "ctr": 6,
   "sig": -42,
   "bat": 100,
   "fwv": "0.0.018",
   "dat": {
    "ttp": [
     26.36,
     26.32,
     26.28,
     26.24,
     26.21,
     25.46
    ],
    "htp": [
     26.43,
     26.4,
     26.36,
     26.32,
     26.29,
     26.2
    ],
    "tpr": [
     100316,
     100317,
     100318,
     100316,
     100316,
     100315
    ],
    "dpr": [
     2,
     0,
     2,
     2,
     2,
     0
    ],
    "iaq": [
     99,
     99,
     99,
     99,
     99,
     99
    ],
    "run": [
     0,
     0,
     0,
     0,
     0,
     0
    ],
    "voc": [
     1880,
     1880,
     1880,
     1880,
     1880,
     2635
    ],
    "hpr": [
     100304,
     100302,
     100306,
     100304,
     100304,
     100300
    ],
    "hhm": [
     35,
     35,
     35,
     35,
     35,
     36
    ]
   },
   "tms": 1546978337,
   "airFilterId": "b6bb28e2-0d76-4622-9565-81c97b53de84",
   "per": 2,
   "did": 1201547013998639
  },
  {
   "ctr": 1,
   "sig": -46,
   "bat": 100,
   "fwv": "0.0.018",
   "dat": {
    "ttp": [
     26.43
    ],
    "htp": [
     26.49
    ],
    "tpr": [
     100318
    ],
    "dpr": [
     0
    ],
    "iaq": [
     99
    ],
    "run": [
     0
    ],
    "voc": [
     1880
    ],
    "hpr": [
     100300
    ],
    "hhm": [
     35
    ]
   },
   "tms": 1546978334,
   "airFilterId": "b6bb28e2-0d76-4622-9565-81c97b53de84",
   "per": 2,
   "did": 1201547013998639
  }
 ],
 "Count": 3,
 "ScannedCount": 3
}