{
 "Items": [
  {
   "ctr": 1,
   "sig": -25,
   "bat": 100,
   "fwv": "0.1.000",
   "dat": {
    "ttp": [
     24.33
    ],
    "htp": [
     24.26
    ],
    "tpr": [
     100406
    ],
    "dpr": [
     0
    ],
    "iaq": [
     99
    ],
    "run": [
     0
    ],
    "voc": [
     1152
    ],
    "hpr": [
     100345
    ],
    "hhm": [
     60
    ]
   },
   "tms": 1558390908,
   "airFilterId": "3d9b418d-7460-49ce-aa26-474c2183c736",
   "per": 10,
   "did": 121892947326480
  },
  {
   "ctr": 8,
   "sig": -26,
   "bat": 100,
   "fwv": "0.1.000",
   "dat": {
    "ttp": [
     24.24,
     24.25,
     24.26,
     24.27,
     24.29,
     24.3,
     24.31,
     24.32
    ],
    "htp": [
     24.29,
     24.21,
     24.21,
     24.22,
     24.23,
     24.25,
     24.25,
     24.26
    ],
    "tpr": [
     100405,
     100403,
     100403,
     100405,
     100406,
     100404,
     100406,
     100404
    ],
    "dpr": [
     1,
     2,
     2,
     0,
     1,
     5,
     1,
     3
    ],
    "iaq": [
     99,
     99,
     99,
     99,
     99,
     99,
     99,
     99
    ],
    "run": [
     0,
     0,
     0,
     0,
     0,
     0,
     0,
     0
    ],
    "voc": [
     1152,
     1152,
     1152,
     1152,
     1152,
     1152,
     1152,
     1152
    ],
    "hpr": [
     100345,
     100345,
     100345,
     100345,
     100347,
     100349,
     100347,
     100347
    ],
    "hhm": [
     60,
     59,
     59,
     60,
     60,
     60,
     60,
     60
    ]
   },
   "tms": 1558390892,
   "airFilterId": "3d9b418d-7460-49ce-aa26-474c2183c736",
   "per": 2,
   "did": 121892947326480
  },
  {
   "ctr": 1,
   "sig": -28,
   "bat": 100,
   "fwv": "0.1.000",
   "dat": {
    "ttp": [
     24.24
    ],
    "htp": [
     24.16
    ],
    "tpr": [
     100402
    ],
    "dpr": [
     0
    ],
    "iaq": [
     99
    ],
    "run": [
     0
    ],
    "voc": [
     1152
    ],
    "hpr": [
     100339
    ],
    "hhm": [
     60
    ]
   },
   "tms": 1558390890,
   "airFilterId": "3d9b418d-7460-49ce-aa26-474c2183c736",
   "per": 2,
   "did": 121892947326480
  }
 ],
 "Count": 3,
 "ScannedCount": 3
}