{
 "Items": [
  {
   "ctr": 12,
   "sig": -36,
   "bat": 100,
   "fwv": "0.1.000",
   "dat": {
    "ttp": [
     24.68,
     24.67,
     24.67,
     24.65,
     24.65,
     24.64,
     24.64,
     24.63,
     24.62,
     24.62,
     25.09,
     25.03
    ],
    "htp": [
     24.53,
     24.53,
     24.52,
     24.51,
     24.5,
     24.49,
     24.49,
     24.48,
     24.47,
     25.05,
     25.63,
     24.94
    ],
    "tpr": [
     100324,
     100321,
     100323,
     100320,
     100318,
     100317,
     100320,
     100320,
     100315,
     100319,
     100317,
     100318
    ],
    "dpr": [
     6,
     7,
     7,
     8,
     8,
     3,
     4,
     6,
     7,
     0,
     0,
     0
    ],
    "iaq": [
     99,
     99,
     99,
     99,
     99,
     99,
     99,
     99,
     99,
     99,
     99,
     99
    ],
    "run": [
     0,
     0,
     0,
     0,
     0,
     0,
     0,
     0,
     0,
     0,
     0,
     0
    ],
    "voc": [
     3133,
     3133,
     3133,
     3133,
     3133,
     3133,
     3133,
     3133,
     3133,
     3583,
     3912,
     3912
    ],
    "hpr": [
     100208,
     100206,
     100208,
     100206,
     100204,
     100198,
     100202,
     100204,
     100200,
     100202,
     100200,
     100200
    ],
    "hhm": [
     38,
     38,
     38,
     38,
     38,
     38,
     38,
     38,
     38,
     38,
     45,
     42
    ]
   },
   "tms": 1546979800,
   "airFilterId": "971d7166-2db9-4a95-8191-53dc106423cb",
   "per": 10,
   "did": 11219175598844
  },
  {
   "ctr": 8,
   "sig": -37,
   "bat": 100,
   "fwv": "0.1.000",
   "dat": {
    "ttp": [
     25.83,
     24.8,
     24.77,
     24.75,
     24.73,
     24.71,
     24.71,
     24.69
    ],
    "htp": [
     25.72,
     25.23,
     24.62,
     24.59,
     24.58,
     24.56,
     24.55,
     24.54
    ],
    "tpr": [
     100319,
     100325,
     100323,
     100326,
     100325,
     100321,
     100326,
     100325
    ],
    "dpr": [
     6,
     0,
     3,
     2,
     1,
     9,
     6,
     7
    ],
    "iaq": [
     99,
     99,
     99,
     99,
     99,
     99,
     99,
     99
    ],
    "run": [
     0,
     0,
     0,
     0,
     0,
     0,
     0,
     0
    ],
    "voc": [
     2446,
     3133,
     3133,
     3133,
     3133,
     3133,
     3133,
     3133
    ],
    "hpr": [
     100204,
     100202,
     100204,
     100206,
     100204,
     100208,
     100210,
     100210
    ],
    "hhm": [
     38,
     38,
     38,
     38,
     38,
     38,
     38,
     38
    ]
   },
   "tms": 1546979577,
   "airFilterId": "971d7166-2db9-4a95-8191-53dc106423cb",
   "per": 10,
   "did": 11219175598844
  },
  {
   "ctr": 1,
   "sig": -46,
   "bat": 100,
   "fwv": "0.0.018",
   "dat": {
    "ttp": [
     25.87
    ],
    "htp": [
     25.79
    ],
    "tpr": [
     100320
    ],
    "dpr": [
     7
    ],
    "iaq": [
     99
    ],
    "run": [
     0
    ],
    "voc": [
     2446
    ],
    "hpr": [
     100206
    ],
    "hhm": [
     38
    ]
   },
   "tms": 1546978513,
   "airFilterId": "971d7166-2db9-4a95-8191-53dc106423cb",
   "per": 10,
   "did": 11219175598844
  },
  {
   "ctr": 8,
   "sig": -43,
   "bat": 100,
   "fwv": "0.0.018",
   "dat": {
    "ttp": [
     26.21,
     26.19,
     26.16,
     26.14,
     26.12,
     26.09,
     25.97,
     25.92
    ],
    "htp": [
     26.21,
     26.08,
     26.04,
     26.01,
     25.98,
     25.96,
     26.45,
     25.98
    ],
    "tpr": [
     100337,
     100331,
     100336,
     100338,
     100337,
     100335,
     100326,
     100322
    ],
    "dpr": [
     0,
     2,
     0,
     0,
     0,
     3,
     0,
     7
    ],
    "iaq": [
     99,
     99,
     99,
     99,
     99,
     99,
     99,
     99
    ],
    "run": [
     0,
     0,
     0,
     0,
     0,
     0,
     0,
     0
    ],
    "voc": [
     1980,
     1980,
     1980,
     1980,
     1980,
     1980,
     2446,
     2446
    ],
    "hpr": [
     100221,
     100219,
     100217,
     100221,
     100219,
     100221,
     100202,
     100208
    ],
    "hhm": [
     35,
     35,
     35,
     35,
     35,
     35,
     38,
     38
    ]
   },
   "tms": 1546978496,
   "airFilterId": "971d7166-2db9-4a95-8191-53dc106423cb",
   "per": 2,
   "did": 11219175598844
  },
  {
   "ctr": 1,
   "sig": -52,
   "bat": 100,
   "fwv": "0.0.018",
   "dat": {
    "ttp": [
     26.23
    ],
    "htp": [
     26.09
    ],
    "tpr": [
     100333
    ],
    "dpr": [
     0
    ],
    "iaq": [
     99
    ],
    "run": [
     0
    ],
    "voc": [
     1980
    ],
    "hpr": [
     100221
    ],
    "hhm": [
     35
    ]
   },
   "tms": 1546978494,
   "airFilterId": "971d7166-2db9-4a95-8191-53dc106423cb",
   "per": 2,
   "did": 11219175598844
  }
 ],
 "Count": 5,
 "ScannedCount": 5
}