[
 "5cb9bc21-2489-48bd-b48a-a80c2825cc65",
 "a1f56775-544f-47e8-b610-825e5b58b2b2",
 "5312a757-f3d5-4f22-b6e1-b74e3b8ad3e0",
 "1ec14bd7-1f0c-407a-84a6-3d8aec1ad254",
 "40a6749e-b2d8-4059-bc59-ddce928ae448",
 "bc2056c1-e858-4503-ac93-b10ca70b01af",
 "697bda25-070e-4a79-bf0b-b8e7b8d22256",
 "3f5e1eb1-8438-43ef-9361-c9f871998b3a",
 "4fbb004e-fdc3-4230-b2c4-f2d6c3f66a8a",
 "f068e074-6718-47ca-bf9a-df523a0c6c19",
 "3bead289-e127-41a5-9b98-03d375320ea3",
 "996e55b8-6141-4456-a406-feeec3d8faf2"
]