[
 1283945390910181,
 7438188010352073,
 31415926,
 4013359278816989,
 1107472920204930,
 4881545418291194,
 2789451405468507,
 5808485723212637,
 751631121356958,
 6590982511684009,
 2951413,
 2681296409743350,
 5133225414802581,
 7954154293311473
]