{
 "city": "Durham",
 "masterAdmin": "breezigateway+matt@gmail.com",
 "streetExtended": " ",
 "admins": [],
 "id": "",
 "country": "US",
 "name": "Gateway Test",
 "zipCode": "27312",
 "buildings": [],
 "state": "US-NC",
 "street": "141 Luckystrike Way"
}
