{
 "id": "str",
 "ac": "bool",
 "aq": "bool",
 "hvacName": "roomName",
 "schema": [],
 "configuration": "equipmentType",
 "manufacturer": "ventManufacturer",
 "modelNo": "ventModelNumber",
 "size": "ventSize",
 "brand": "filterBrand",
 "fModel": "filterModel",
 "fType": "filterType",
 "airFilters": [
  {
   "fromTimestamp": "num",
   "toTimestamp": "num",
   "id": "filterId"
  }
 ],
 "device": "deviceId(num)",
 "floorIndex": "floorIndex"
}
